%YAML 1.1
%TAG !u! tag:unity3d.com,2011:
--- !u!114 &11400000
MonoBehaviour:
  m_ObjectHideFlags: 0
  m_CorrespondingSourceObject: {fileID: 0}
  m_PrefabInstance: {fileID: 0}
  m_PrefabAsset: {fileID: 0}
  m_GameObject: {fileID: 0}
  m_Enabled: 1
  m_EditorHideFlags: 0
  m_Script: {fileID: 11500000, guid: 958e6ab6a1dd34d33950c5f19a754c1c, type: 3}
  m_Name: Sm4shStaminaAttackEngine
  m_EditorClassIdentifier: 
  attackEngineUiReference: {fileID: 6377885592437454455, guid: b583ea4fd08819345a61fd82c5fec35b,
    type: 3}
  binary:
    backingTextAsset: {fileID: 4900000, guid: f2c690ae8052a8f45b539d5040809536, type: 3}
  _shieldDepletionPerFrame: 0.13
  _shieldRegenerationPerFrame: 0.08
  _maxShield: 50
  lastHitFrame: 0
  diStick: {x: 0, y: 0}
